diamonds
…
#3

#All diamonds with a clarity of category IF are present in the data-set
f<-
jems %>%
 filter(clarity == "IF") 
nrow(f)

## [1] 1790

f

## # A tibble: 1,790 x 10
##    carat cut       color clarity depth table price     x     y     z
##    <dbl> <chr>     <chr> <chr>   <dbl> <dbl> <dbl> <dbl> <dbl> <dbl>
##  1 0.52  Ideal     F     IF       62.2    55  2783  5.14  5.18  3.21
##  2 0.55  Ideal     G     IF       60.9    57  2789  5.28  5.3   3.22
##  3 0.64  Ideal     G     IF       61.3    56  2790  5.54  5.58  3.41
##  4 0.72  Premium   I     IF       63      57  2795  5.72  5.7   3.6 
##  5 0.6   Very Good G     IF       61.6    56  2800  5.43  5.46  3.35
##  6 0.61  Ideal     G     IF       62.3    56  2800  5.43  5.45  3.39
##  7 0.53  Ideal     F     IF       61.9    54  2802  5.22  5.25  3.24
##  8 0.56  Very Good E     IF       61      59  2833  5.28  5.34  3.24
##  9 0.580 Very Good E     IF       60.6    59  2852  5.37  5.43  3.27
## 10 0.62  Fair      F     IF       60.1    61  2861  5.53  5.56  3.33
## # ... with 1,780 more rows
…
## [1] 0.1514831

   SI1<-filter(jems,clarity == "SI1")
        nrow(SI1)/g

## [1] 0.2422136

   SI2<-filter(jems,clarity == "SI2")
        nrow(SI2)/g

## [1] 0.1704486

IF 

## # A tibble: 1,790 x 10
##    carat cut       color clarity depth table price     x     y     z
##    <dbl> <chr>     <chr> <chr>   <dbl> <dbl> <dbl> <dbl> <dbl> <dbl>
##  1 0.52  Ideal     F     IF       62.2    55  2783  5.14  5.18  3.21
##  2 0.55  Ideal     G     IF       60.9    57  2789  5.28  5.3   3.22
##  3 0.64  Ideal     G     IF       61.3    56  2790  5.54  5.58  3.41
##  4 0.72  Premium   I     IF       63      57  2795  5.72  5.7   3.6 
##  5 0.6   Very Good G     IF       61.6    56  2800  5.43  5.46  3.35
##  6 0.61  Ideal     G     IF       62.3    56  2800  5.43  5.45  3.39
##  7 0.53  Ideal     F     IF       61.9    54  2802  5.22  5.25  3.24
##  8 0.56  Very Good E     IF       61      59  2833  5.28  5.34  3.24
##  9 0.580 Very Good E     IF       60.6    59  2852  5.37  5.43  3.27
## 10 0.62  Fair      F     IF       60.1    61  2861  5.53  5.56  3.33
## # ... with 1,780 more rows

I1

## # A tibble: 741 x 10
##    carat cut       color clarity depth table price     x     y     z
##    <dbl> <chr>     <chr> <chr>   <dbl> <dbl> <dbl> <dbl> <dbl> <dbl>
##  1  0.32 Premium   E     I1       60.9    58   345  4.38  4.42  2.68
##  2  1.17 Very Good J     I1       60.2    61  2774  6.83  6.9   4.13
##  3  1.01 Premium   F     I1       61.8    60  2781  6.39  6.36  3.94
##  4  1.01 Fair      E     I1       64.5    58  2788  6.29  6.21  4.03
##  5  0.96 Ideal     F     I1       60.7    55  2801  6.37  6.41  3.88
##  6  1.04 Premium   G     I1       62.2    58  2801  6.46  6.41  4   
##  7  1    Fair      G     I1       66.4    59  2808  6.16  6.09  4.07
##  8  1.2  Fair      F     I1       64.6    56  2809  6.73  6.66  4.33
##  9  0.43 Very Good E     I1       58.4    62   555  4.94  5     2.9 
## 10  1.02 Premium   G     I1       60.3    58  2815  6.55  6.5   3.94
## # ... with 731 more rows

VVS1

## # A tibble: 3,655 x 10
##    carat cut       color clarity depth table price     x     y     z
##    <dbl> <chr>     <chr> <chr>   <dbl> <dbl> <dbl> <dbl> <dbl> <dbl>
##  1  0.24 Very Good I     VVS1     62.3  57     336  3.95  3.98  2.47
##  2  0.32 Ideal     I     VVS1     62    55.3   553  4.39  4.42  2.73
##  3  0.24 Premium   E     VVS1     60.7  58     553  4.01  4.03  2.44
##  4  0.24 Very Good D     VVS1     61.5  60     553  3.97  4     2.45
##  5  0.26 Very Good E     VVS1     62.6  59     554  4.06  4.09  2.55
##  6  0.26 Very Good E     VVS1     63.4  59     554  4     4.04  2.55
##  7  0.26 Very Good D     VVS1     62.1  60     554  4.03  4.12  2.53
##  8  0.26 Good      E     VVS1     57.9  60     554  4.22  4.25  2.45
##  9  0.24 Premium   G     VVS1     62.3  59     554  3.95  3.92  2.45
## 10  0.24 Premium   H     VVS1     61.2  58     554  4.01  3.96  2.44
## # ... with 3,645 more rows

VVS2

## # A tibble: 5,066 x 10
##    carat cut       color clarity depth table price     x     y     z
##    <dbl> <chr>     <chr> <chr>   <dbl> <dbl> <dbl> <dbl> <dbl> <dbl>
##  1  0.24 Very Good J     VVS2     62.8    57   336  3.94  3.96  2.48
##  2  0.23 Very Good G     VVS2     60.4    58   354  3.97  4.01  2.41
##  3  0.28 Ideal     G     VVS2     61.4    56   553  4.19  4.22  2.58
##  4  0.26 Very Good F     VVS2     59.2    60   554  4.19  4.22  2.49
##  5  0.26 Very Good E     VVS2     59.9    58   554  4.15  4.23  2.51
##  6  0.26 Very Good D     VVS2     62.4    54   554  4.08  4.13  2.56
##  7  0.26 Very Good D     VVS2     62.8    60   554  4.01  4.05  2.53
##  8  0.26 Ideal     E     VVS2     62.9    58   554  4.02  4.06  2.54
##  9  0.24 Premium   H     VVS2     60.7    58   554  4.07  4.04  2.46
## 10  0.74 Ideal     I     VVS2     62.3    55  2761  5.77  5.81  3.61
## # ... with 5,056 more rows

VS2

## # A tibble: 12,258 x 10
##    carat cut       color clarity depth table price     x     y     z
##    <dbl> <chr>     <chr> <chr>   <dbl> <dbl> <dbl> <dbl> <dbl> <dbl>
##  1 0.290 Premium   I     VS2      62.4    58   334  4.2   4.23  2.63
##  2 0.22  Fair      E     VS2      65.1    61   337  3.87  3.78  2.49
##  3 0.23  Very Good E     VS2      63.8    55   352  3.85  3.92  2.48
##  4 0.3   Very Good J     VS2      62.2    57   357  4.28  4.3   2.67
##  5 0.23  Very Good D     VS2      60.5    61   357  3.96  3.97  2.4 
##  6 0.26  Very Good D     VS2      60.8    59   403  4.13  4.16  2.52
##  7 0.26  Good      D     VS2      65.2    56   403  3.99  4.02  2.61
##  8 0.25  Very Good E     VS2      63.3    60   404  4     4.03  2.54
##  9 0.22  Premium   E     VS2      61.6    58   404  3.93  3.89  2.41
## 10 0.22  Premium   D     VS2      59.3    62   404  3.91  3.88  2.31
## # ... with 12,248 more rows

VS1

## # A tibble: 8,171 x 10
##    carat cut       color clarity depth table price     x     y     z
##    <dbl> <chr>     <chr> <chr>   <dbl> <dbl> <dbl> <dbl> <dbl> <dbl>
##  1  0.23 Good      E     VS1      56.9    65   327  4.05  4.07  2.31
##  2  0.23 Very Good H     VS1      59.4    61   338  4     4.05  2.39
##  3  0.23 Ideal     J     VS1      62.8    56   340  3.93  3.9   2.46
##  4  0.23 Very Good H     VS1      61      57   353  3.94  3.96  2.41
##  5  0.24 Premium   I     VS1      62.5    57   355  3.97  3.94  2.47
##  6  0.23 Very Good F     VS1      60.9    57   357  3.96  3.99  2.42
##  7  0.23 Very Good F     VS1      60      57   402  4     4.03  2.41
##  8  0.23 Very Good F     VS1      59.8    57   402  4.04  4.06  2.42
##  9  0.23 Very Good E     VS1      60.7    59   402  3.97  4.01  2.42
## 10  0.23 Very Good E     VS1      59.5    58   402  4.01  4.06  2.4 
## # ... with 8,161 more rows

SI1

## # A tibble: 13,065 x 10
##    carat cut       color clarity depth table price     x     y     z
##    <dbl> <chr>     <chr> <chr>   <dbl> <dbl> <dbl> <dbl> <dbl> <dbl>
##  1  0.21 Premium   E     SI1      59.8    61   326  3.89  3.84  2.31
##  2  0.26 Very Good H     SI1      61.9    55   337  4.07  4.11  2.53
##  3  0.3  Good      J     SI1      64      55   339  4.25  4.28  2.73
##  4  0.22 Premium   F     SI1      60.4    61   342  3.88  3.84  2.33
##  5  0.3  Good      J     SI1      63.4    54   351  4.23  4.29  2.7 
##  6  0.3  Good      J     SI1      63.8    56   351  4.23  4.26  2.71
##  7  0.3  Very Good J     SI1      62.7    59   351  4.21  4.27  2.66
##  8  0.31 Very Good J     SI1      59.4    62   353  4.39  4.43  2.62
##  9  0.31 Very Good J     SI1      58.1    62   353  4.44  4.47  2.59
## 10  0.31 Good      H     SI1      64      54   402  4.29  4.31  2.75
## # ... with 13,055 more rows

SI2

## # A tibble: 9,194 x 10
##    carat cut       color clarity depth table price     x     y     z
##    <dbl> <chr>     <chr> <chr>   <dbl> <dbl> <dbl> <dbl> <dbl> <dbl>
##  1  0.23 Ideal     E     SI2      61.5    55   326  3.95  3.98  2.43
##  2  0.31 Good      J     SI2      63.3    58   335  4.34  4.35  2.75
##  3  0.31 Ideal     J     SI2      62.2    54   344  4.35  4.37  2.71
##  4  0.2  Premium   E     SI2      60.2    62   345  3.79  3.75  2.27
##  5  0.3  Ideal     I     SI2      62      54   348  4.31  4.34  2.68
##  6  0.3  Good      I     SI2      63.3    56   351  4.26  4.3   2.71
##  7  0.33 Ideal     I     SI2      61.8    55   403  4.49  4.51  2.78
##  8  0.33 Ideal     I     SI2      61.2    56   403  4.49  4.5   2.75
##  9  0.32 Good      H     SI2      63.1    56   403  4.34  4.37  2.75
## 10  0.32 Very Good H     SI2      61.8    55   403  4.35  4.42  2.71
## # ... with 9,184 more rows
…
## [1] 326

#The range of diamond prices
range(price)

## [1]   326 18823

#The average diamond price in each category of cut and color
jems %>%
  group_by(cut,color) %>%
  summarise(avg_price=mean(price),.groups='drop')

## # A tibble: 35 x 3
##    cut   color avg_price
##    <chr> <chr>     <dbl>
##  1 Fair  D         4291.
##  2 Fair  E         3682.
##  3 Fair  F         3827.
##  4 Fair  G         4239.
##  5 Fair  H         5136.
##  6 Fair  I         4685.
##  7 Fair  J         4976.
##  8 Good  D         3405.
##  9 Good  E         3424.
## 10 Good  F         3496.
## # ... with 25 more rows
…
#plot(price ~ carat)

#7

# A-The relationship between these two variables(PRICE,carat). 
 jems %>%
  group_by(carat,clarity,price) %>%
  summarise(avg=mean(price),.groups='drop')

## # A tibble: 33,356 x 4
##    carat clarity price   avg
##    <dbl> <chr>   <dbl> <dbl>
##  1  0.2  SI2       345   345
##  2  0.2  VS2       367   367
##  3  0.21 SI1       326   326
##  4  0.21 SI2       394   394
##  5  0.21 VS2       386   386
##  6  0.22 SI1       342   342
##  7  0.22 SI1       470   470
##  8  0.22 VS2       337   337
##  9  0.22 VS2       404   404
## 10  0.23 IF        369   369
## # ... with 33,346 more rows

B-Do you think that you can use the carat weight of a diamond to predict its price? THE plot shows a positive correlation between carat and price,The model showed an increase in price depending on carat weight,but as we see above that clarity with carat would give more better prediction for the price .

#8

#Apply a log10 transformation to both the price and carat and save these as new columns in the data set called price_log10 and carat_log10.
jems.new<-select(jems,carat,price) %>%
mutate(carat_log=log(carat)) %>%
mutate(price_log=log(price))
jems.new

## # A tibble: 53,940 x 4
##    carat price carat_log price_log
##    <dbl> <dbl>     <dbl>     <dbl>
##  1 0.23    326     -1.47      5.79
##  2 0.21    326     -1.56      5.79
##  3 0.23    327     -1.47      5.79
##  4 0.290   334     -1.24      5.81
##  5 0.31    335     -1.17      5.81
##  6 0.24    336     -1.43      5.82
##  7 0.24    336     -1.43      5.82
##  8 0.26    337     -1.35      5.82
##  9 0.22    337     -1.51      5.82
## 10 0.23    338     -1.47      5.82
## # ... with 53,930 more rows
…
